Dataset Work
…
Dataset Work

2026-03-05

## # A tibble: 25 × 4
##    column             na_count total_rows na_percent
##    <chr>                 <int>      <int>      <dbl>
##  1 collision_index           0     259859     0     
##  2 collision_year            0     259859     0     
##  3 vehicle_reference         0     259859     0     
##  4 casualty_reference        0     259859     0     
##  5 sex_of_casualty         219     259859     0.0843
##  6 age_of_casualty        2141     259859     0.824 
##  7 casualty_severity         0     259859     0     
##  8 casualty_type          1456     259859     0.560 
##  9 longitude                48     259859     0.0185
## 10 latitude                 48     259859     0.0185
## # ℹ 15 more rows

## # A tibble: 25 × 4
##    column             na_count total_rows na_percent
##    <chr>                 <int>      <int>      <dbl>
##  1 collision_index           0    1495409     0     
##  2 collision_year            0    1495409     0     
##  3 vehicle_reference         0    1495409     0     
##  4 casualty_reference        0    1495409     0     
##  5 sex_of_casualty        6643    1495409     0.444 
##  6 age_of_casualty       28062    1495409     1.88  
##  7 casualty_severity         0    1495409     0     
##  8 casualty_type          4957    1495409     0.331 
##  9 longitude               265    1495409     0.0177
## 10 latitude                265    1495409     0.0177
## # ℹ 15 more rows

## # A tibble: 25 × 4
##    column             na_count total_rows na_percent
##    <chr>                 <int>      <int>      <dbl>
##  1 collision_index           0      16816    0      
##  2 collision_year            0      16816    0      
##  3 vehicle_reference         0      16816    0      
##  4 casualty_reference        0      16816    0      
##  5 sex_of_casualty           0      16816    0      
##  6 age_of_casualty           1      16816    0.00595
##  7 casualty_severity         0      16816    0      
##  8 casualty_type            33      16816    0.196  
##  9 longitude                 2      16816    0.0119 
## 10 latitude                  2      16816    0.0119 
## # ℹ 15 more rows
…
