Dataset Work
…
Dataset Work

2026-03-05

## # A tibble: 25 × 4
##    column             na_count total_rows na_percent
##    <chr>                 <int>      <int>      <dbl>
##  1 collision_ref_no          0      21487     0     
##  2 collision_year            0      21487     0     
##  3 vehicle_reference         0      21487     0     
##  4 casualty_reference        0      21487     0     
##  5 sex_of_casualty          18      21487     0.0838
##  6 age_of_casualty         165      21487     0.768 
##  7 casualty_severity         0      21487     0     
##  8 casualty_type           128      21487     0.596 
##  9 longitude             18847      21487    87.7   
## 10 latitude              18847      21487    87.7   
## # ℹ 15 more rows

## # A tibble: 25 × 4
##    column             na_count total_rows na_percent
##    <chr>                 <int>      <int>      <dbl>
##  1 collision_ref_no          0      21487     0     
##  2 collision_year            0      21487     0     
##  3 vehicle_reference         0      21487     0     
##  4 casualty_reference        0      21487     0     
##  5 sex_of_casualty           0      21487     0     
##  6 age_of_casualty           4      21487     0.0186
##  7 casualty_severity         0      21487     0     
##  8 casualty_type             0      21487     0     
##  9 longitude                 0      21487     0     
## 10 latitude                  0      21487     0     
## # ℹ 15 more rows
…
